{
	"main_script": "evl_photos.js",
	"icon": "photos.webp",
	"width": 800,
	"height": 600,
	"animation": true,
	"dependencies": [
		"photo_scrapbooks.js"
	],
	"load": {
		"imageSet": 0,
		"counter": 1
	},
	"title": "EVL Photo Slideshow",
	"version": "1.3",
	"description": "A slideshow / webcam viewer",
	"keywords": [ "d3", "picture", "history", "slideshow", "webcam" ],
	"author": "Andrew Johnson <lenzman@me.com>",
	"license": "SAGE2-Software-License"
}
