{
	"main_script": "unity.js",
	"icon": "unity.webp",
	"width": 1280,
	"height": 720,
	"animation": true,
	"dependencies": [
	],
	"title": "Unity3D viewer",
	"version": "1.0.0",
	"description": "Test to load Unity3D games",
	"keywords": [ "unity3d", "3d", "plugin" ],
	"author": "Luc Renambot <renambot@gmail.com>",
	"license": "SAGE2-Software-License"
}
